verilog/Assignment1/two_s_complement_tb.vcd
$date
	Sat Dec 10 14:50:06 2022
$end
$version
	Icarus Verilog
$end
$timescale
	10ps
$end
$scope module two_s_complement_tb $end
$var wire 4 ! outputtest [3:0] $end
$var reg 4 " In_test [3:0] $end
$var integer 32 # i [31:0] $end
$scope module uut $end
$var wire 4 $ In [3:0] $end
$var wire 4 % Out [3:0] $end
$upscope $end
$upscope $end
$enddefinitions $end
$comment Show the parameter values. $end
$dumpall
$end
#0
$dumpvars
b0 %
b0 $
b0 #
b0 "
b0 !
$end
#1000
b1111 !
b1111 %
b1 "
b1 $
b1 #
#2000
b1110 !
b1110 %
b10 "
b10 $
b10 #
#3000
b1101 !
b1101 %
b11 "
b11 $
b11 #
#4000
b1100 !
b1100 %
b100 "
b100 $
b100 #
#5000
b1011 !
b1011 %
b101 "
b101 $
b101 #
#6000
b1010 !
b1010 %
b110 "
b110 $
b110 #
#7000
b1001 !
b1001 %
b111 "
b111 $
b111 #
#8000
b1000 !
b1000 %
b1000 "
b1000 $
b1000 #
#9000
b111 !
b111 %
b1001 "
b1001 $
b1001 #
#10000
b110 !
b110 %
b1010 "
b1010 $
b1010 #
#11000
b101 !
b101 %
b1011 "
b1011 $
b1011 #
#12000
b100 !
b100 %
b1100 "
b1100 $
b1100 #
#13000
b11 !
b11 %
b1101 "
b1101 $
b1101 #
#14000
b10 !
b10 %
b1110 "
b1110 $
b1110 #
#15000
b1 !
b1 %
b1111 "
b1111 $
b1111 #
#16000
b10000 #
